…
### Study B: Rating iconicity

Here we look at the iconicity ratings for all ideophones across both
studies.

``` r
d.ratings.full |>
  group_by(ideophone,language) |>
  dplyr::summarise(n=n(),mean=mean.na(rating),sd=sd.na(rating))
```

    ## # A tibble: 171 × 5
    ## # Groups:   ideophone [166]
    ##    ideophone  language     n  mean    sd
    ##    <chr>      <chr>    <int> <dbl> <dbl>
    ##  1 bachabacha Japanese    19  3.63 1.37 
    ##  2 bari bari  Japanese    18  2.08 1.07 
    ##  3 baŋʔis     Semai       18  1.66 0.797
    ##  4 bon        Japanese    18  4.26 0.727
    ##  5 boo boo    Japanese    18  1.39 0.470
    ##  6 bracɨɨj    Semai       20  2.33 1.00 
    ##  7 brihɔ̃c     Semai       18  1.81 0.946
    ##  8 bucbuc     Semai       20  4.06 1.05 
    ##  9 bukbukbuk  Semai       18  4.72 0.442
    ## 10 bulubulu   Ewe         20  2.42 1.06 
    ## # ℹ 161 more rows
…
